{
	"I18N.LANGUAGE": "Polski",
	"I18N.MAINTAINERS": ["koniu699, Kain-Reicz, silent_mark"],

	"Activate": "Aktywuj",
    "Author": "Autor",
    "Cancel": "Anuluj",
    "Character": "Postać",
    "Configure": "Konfiguruj",
    "Close": "Zamknij",
    "Degrees": "Poziomy",
    "Default": "Standardowa",
    "Delete": "Usuń",
    "Distance": "Odległość",
    "Documentation": "Dokumentacja",
    "Duplicate": "Duplikuj",
    "Error": "Błąd",
    "GridUnits": "Jednostka siatki",
    "Install": "Zainstaluj",
    "Elevation": "Podwyższenie",
    "Foundry Virtual Tabletop": "Foundry Virtual Tabletop",
    "File Path": "Ścieżka pliku",
    "Height": "Wysokość",
    "Hidden": "Ukryty",
    "Name": " Nazwa",
    "No": "Nie",
    "Notes": "Notatki",
    "Preload": "Przeładuj",
    "Token": "Token",
    "Path": "Ścieżka",
    "Packs": "Pakiet",
    "Permissions": "Uprawnienie",
    "Pixels": "Pixele",
    "Ratio": "Ratio",
    "Rotation": "Rotacja",
    "Save Changes": "Zapisz zmiany",
    "Scale": "Skala",
    "Sheet": "Karta",
    "System": "System",
    "Type": "Typ",
    "Uninstall": "Odinstaluj",
    "Update": "Aktualizuj",
    "URL": "URL",
    "Warning": "Ostrzeżenie",
    "Width": "Szerokość",
    "XCoord": "X-Współrzędna",
    "YCoord": "Y-Współrzędna",
    "Yes": "Tak",

	"ACTOR.Title": "Katalog Aktorów",
	"ACTOR.Create": "Stwórz Aktora",
	"ACTOR.Search": "Wyszukaj Aktora",

	"CHAT.Clear": "Wyczyść log chatu",
	"CHAT.Export": "Wyeksportuj log chatu",
	"CHAT.FlushTitle": "Wykasuj log chatu",
	"CHAT.FlushWarning": "<h3>Na pewno?</h3><p>Wszystkie wiadomości z logu chatu zostaną usunięte i wyczyszczone.</p>",
    "CHAT.InvalidCommand": "{command} nie jest prawidłową komendą czatu.",
 	"CHAT.Title": "Log chatu",
	"CHAT.To": "Do",
    "CHAT.RevealMessage": "Pokaż wszystkim",
	"CHAT.RollBlind": "Ślepy rzut MG",
	"CHAT.RollDefault": "Standardowy rzut",
	"CHAT.RollPublic": "Publiczny rzut",
	"CHAT.RollPrivate": "Prywatny rzut MG",
	"CHAT.RollSelf": "Osobisty rzut",
	"CHAT.RollTables": "Tabele rzutów",

	"COMBAT.Begin": "Rozpocznij Walkę",
	"COMBAT.Create": "Utwórz Starcie",
	"COMBAT.Delete": "Wykasuj Starcie",
	"COMBAT.Encounter": "Starcie",
	"COMBAT.EncounterPrevious": "Aktywuj poprzednie Starcie",
	"COMBAT.EncounterNext": "Aktywuj następne Starcie",
	"COMBAT.End": "Zakończ Walkę",
	"COMBAT.InitiativeRoll": "Rzuć Inicjatywę",
	"COMBAT.InitiativeReset": "Zresetuj Inicjatywę",
	"COMBAT.None": "Brak Aktywnego Starcia",
	"COMBAT.NoneRemaining": "Nie pozostał ani jeden uczestnik Starcia, który nie jest pokonany.",
	"COMBAT.NotStarted": "Nie rozpoczęto",
	"COMBAT.Resource": "Śledzony atrybut",
	"COMBAT.ResourceHint": "Wybierz atrybut do śledzenie każdego bojownika.",
	"COMBAT.Round": "Runda Walki",
	"COMBAT.RoundPrev": "Poprzednia Runda",
	"COMBAT.RoundNext": "Następna Runda",
	"COMBAT.RollNPC": "Rzut dla NPC",
	"COMBAT.RollAll": "Rzut dla wszystkich",
	"COMBAT.Settings": "Ustawienia Kolejki Stracia",
	"COMBAT.SettingsSave": "Zapisz Ustawienia",
	"COMBAT.SkipDefeated": "Pomiń pokonanych?",
	"COMBAT.SkipDefeatedHint": "Automatycznie pomiń bojowników oznaczonych jako pokonany?",
	"COMBAT.ToggleVis": "Przełącz widoczność",
	"COMBAT.ToggleDead": "Oznacz jako pokonany",
	"COMBAT.TurnEnd": "Zakończ Turę",
	"COMBAT.TurnNext": "Następna Tura",
	"COMBAT.TurnPrev": "Poprzednia Tura",

	"COMPENDIUM.Name": "Nazwa Biblioteki",
	"COMPENDIUM.Create": "Utwórz Bibliotekę",
	"COMPENDIUM.CreateHint": "Utwórz nową Bibliotekę w obecnym Świecie.",
	"COMPENDIUM.Delete": "Usuń Bibliotekę",
    "COMPENDIUM.Duplicate": "Duplikuj Bibliotekę",
	"COMPENDIUM.DuplicateTitle": "Nowa Nazwa Biblioteki", 
	"COMPENDIUM.DuplicateHint": "Możesz zduplikować tę bibliotekę do swojego Świata, aby mieć kopię bezpieczną do edycji.",
	"COMPENDIUM.Type": "Typ Bytu",
	"COMPENDIUM.TypeHint": "Każda Biblioteka posiada konkretny Typ Bytów.",
    "COMPENDIUM.ToggleVisibility": "Przełącz Widoczność",
	"COMPENDIUM.ToggleLocked": "Przełącz Blokadę Edycji",
	"COMPENDIUM.ToggleLockedWarning": "Zamierzasz odblokować do edycji bibliotekę, która nie należy do tego Świata. Wszelkie zmiany wykonane w tej bibliotece mogą zostać utracone, gdy moduł lub system zostaną zaktualizowane. Być może lepiej będzie utworzyć kopię biblioteki w swoim świecie. Czy chcesz kontynuować?",
	"COMPENDIUM.MarkPublic": "Oznacz jako Publiczne",
	"COMPENDIUM.MarkPrivate": "Oznacz jako Prywatne",
 
	"CONTROLS.Title": "Sterowanie Grą",
	"CONTROLS.Instructions": "Ta formatka pokazuje sterowanie klawiaturą oraz myszą dla wielu aspektów Foundry VTT.",
	"CONTROLS.GroupBasic": "Sterowanie Podstawowe",
	"CONTROLS.BasicSelect": "Wybierz Tokeny",
	"CONTROLS.TargetSelect": "Wybierz Cele",
	"CONTROLS.BasicMeasure": "Mierz Dystans",
	"CONTROLS.GroupMeasure": "Sterowanie Miary",
	"CONTROLS.MeasureCircle": "Wzornik Okrągły",
	"CONTROLS.MeasureCone": "Wzornik Stożkowy",
	"CONTROLS.MeasureRect": "Wzornik Prostokątny",
	"CONTROLS.MeasureRay": "Wzornik Promienia",
	"CONTROLS.MeasureClear": "Wyczyść Wzorniki",
	"CONTROLS.GroupTile": "Kontrola Kafli",
	"CONTROLS.TileSelect": "Wybierz Kafle",
	"CONTROLS.TilePlace": "Umieść Kafla",
	"CONTROLS.GroupDrawing": "Narzędzia do Rysowania",
	"CONTROLS.DrawingSelect": "Wybierz Rysunek",
	"CONTROLS.DrawingRect": "Rysuj Prostokąt",
	"CONTROLS.DrawingEllipse": "Rysuj Elipsę",
	"CONTROLS.DrawingPoly": "Rysuj Wielokąt",
	"CONTROLS.DrawingFree": "Rysuj Odręcznie",
	"CONTROLS.DrawingText": "Rysuj Tekst",
	"CONTROLS.DrawingClear": "Wyczyść Rysunki",
	"CONTROLS.DrawingConfig": "Sterowanie Rysowaniem",
	"CONTROLS.GroupWall": "Sterowanie Ścianami",
	"CONTROLS.WallDraw": "Rysuj Ścianę",
	"CONTROLS.WallInvisible": "Ściana Niewidoczna",
	"CONTROLS.WallTerrain": "Ściana Terenowa",
	"CONTROLS.WallEthereal": "Ściana Eteryczna",
	"CONTROLS.WallDoors": "Rysuj Drzwi",
	"CONTROLS.WallSecret": "Ukryte Drzwi",
	"CONTROLS.WallClone": "Klonuj Ściany",
	"CONTROLS.WallSelect": "Zaznacz Ściany (Prostokąt)",
    "CONTROLS.WallSnap": "Wymuś Dopasowanie do Siatki",
	"CONTROLS.WallClear": "Wyczyść Ściany",
	"CONTROLS.GroupLighting": "Sterowanie Światłem",
	"CONTROLS.LightDraw": "Rysuj Źródło Światła",
	"CONTROLS.LightClear": "Wyczyść Światła",
	"CONTROLS.LightReset": "Resetuj Mgłę Wojny",
	"CONTROLS.LightDay": "Przejśćie do Dnia",
	"CONTROLS.LightNight": "Przejście do Nocy",
	"CONTROLS.FOWResetTitle": "Zresetować eksplorację Mgły Wojny?",
	"CONTROLS.FOWResetDesc": "Zresetuje to Mgłę Wojny dla wszystkich graczy.",
	"CONTROLS.GroupSound": "Sterowanie Dźwiękami Tła",
	"CONTROLS.SoundDraw": "Rysuj Źródło Dźwięku Tła",
	"CONTROLS.SoundClear": "Wyczyść Źródła Dźwięku",
	"CONTROLS.GroupNotes": "Notatki Dziennika",
	"CONTROLS.NoteSelect": "Wybierz Notatkę",
	"CONTROLS.NoteToggle": "Przełącz Wyświetlanie Notatek",
	"CONTROLS.NoteClear": "Wyczyść Notatki",

	"CONTROLS.HeaderGame": "Sterowanie Grą", 
	"CONTROLS.HeaderGameNotes": "Poniższe skróty dotyczą podstawowych funkcjonalności Foundry",
	"CONTROLS.HeaderCanvas": "Sterowanie Obiektów Płótna",
    "CONTROLS.HeaderCanvasNotes": "Poniższe skróty dotyczą manipulacji warstwą Płótna.",
	"CONTROLS.HeaderObjects": "Sterowanie Obiektów",
	"CONTROLS.HeaderObjectsNotes": "Poniższe skróty dotyczą aspektów związanych z manipulacją obiektami umieszczonymi na Płótnie.",
    "CONTROLS.HeaderSpecial": "Sterowanie Specjalistyczne",
    "CONTROLS.HeaderSpecialNotes": "Poniższe skróty dotyczą szczególnych interakcji.",
    "CONTROLS.MouseControls": "Sterowanie Myszką",
	"CONTROLS.KeyboardControls": "Sterowanie Klawiaturą",

	"CONTROLS.GameMenu": "Przełącz Menu Główne",
	"CONTROLS.GameClose": "Zamknij Otwarte Okna",
	"CONTROLS.GamePause": "Przełącz Pauze Gry (MG)",
	"CONTROLS.CanvasCancel": "Anuluj Ruch",	

	"CONTROLS.CanvasMove": "Przesuń Obiekt",
	"CONTROLS.CanvasPan": "Wycentruj Płótno",
    "CONTROLS.CanvasSelect": "Zaznacz Obiekt",
    "CONTROLS.CanvasSelectMany": "Dodaj lub Usuń Zaznaczone Obiekty",
    "CONTROLS.CanvasLeftDrag": "Użyj Aktywnego Narzędzia",
    "CONTROLS.CanvasSelectCancel": "Przerwij Operację Przeciągania",
	"CONTROLS.CanvasZoom": "Przybliż Płótno",
	"CONTROLS.LeftClick": "Kliknięcie Lewym",
	"CONTROLS.LeftClick2": "Podwójne Kliknięcie Lewym",
	"CONTROLS.LeftDrag": "Przeciągnięcie Lewym",

	"CONTROLS.CanvasConfigure": "Skonfiguruj Obiekt Płótna (MG)",
	"CONTROLS.CanvasCopy": "Skopiuj Obiekt Płótna (MG)",
	"CONTROLS.CanvasDelete": "Skasuj Wybrany Obiekt (MG)",
	"CONTROLS.CanvasMeasure": "Zmierz dystans przy pomocy Linijki",
	"CONTROLS.CanvasWaypoint": "Ustaw Punkt Pomiaru",
	"CONTROLS.CanvasNoSnap": "Omiń Przyciąganie do Siatki",
	"CONTROLS.CanvasPaste": "Wklej Obiekt Płótna (MG)",
	"CONTROLS.CanvasReset": "Resetuj Widok",
	"CONTROLS.CanvasUndo": "Cofnij operację Płótna",

	"CONTROLS.RightDrag": "Przeciągnięcie Prawym",
	"CONTROLS.MouseWheel": "Rolka Myszy",
	"CONTROLS.DragDrop": "Przeciągnij i Upuść",
	"CONTROLS.RightClick": "Kliknięcie Prawym",
    "CONTROLS.Double": "Podwójny",
    "CONTROLS.Drag": "Przeciągnij",
    "CONTROLS.Drop": "Upuść",
    "CONTROLS.During": "podczas",
    
    "CONTROLS.KeyHighlight": "Podświetl Obiekt Płótno",
	"CONTROLS.KeyPan": "Oddal Płótno",
    "CONTROLS.KeyZoomIn": "Przybliż",
    "CONTROLS.KeyZoomOut": "Oddal",
    "CONTROLS.KeyCycle": "Iteruj Tokeny lub Resetuj Widok",
    "CONTROLS.KeyMove": "Poruszanie za pomocą klawiatury (Kafelki lub Byty)",
    "CONTROLS.KeyMoveDiag": "Poruszanie po przekątnej",
    "CONTROLS.KeyMoveFace": "Kierunek Twarzy",
    "CONTROLS.KeyDelete": "Usuń Zaznaczone Byty",
    "CONTROLS.KeyCopy": "Kopiuj Elementy Płótno",
    "CONTROLS.KeyPaste": "Wklej Elementy Płótno",
    "CONTROLS.KeyUndo": "Cofnij Operację na Płótno",
    "CONTROLS.KeyHotbar": "Aktywuj Slot Paska Dostępu",
        
    "CONTROLS.RulerTitle": "Linijka",
    "CONTROLS.RulerMeasure": "Zmierz Dystans",
    "CONTROLS.RulerWaypoint": "Umieść Punkty Orientacyjne",
    "CONTROLS.RulerMove": "Przemieść Token po określonej ścieżce",
	"CONTROLS.RulerWhile": "w trakcie mierzenia od Tokena",
	    
    "CONTROLS.ObjectSheet": "Otwórz Kartę Bytu",
    "CONTROLS.ObjectHUD": "Wyświetl HUD Bytu (gdy dostępne)",
    "CONTROLS.ObjectConfig": "Otwórz Konfigurację Bytu",
    "CONTROLS.ObjectDrag": "Przemieść Kontrolowany Byt",
    "CONTROLS.ObjectDragCancel": "Przerwij Proces Przeciągania",
    "CONTROLS.ObjectRotateSlow": "Obróć Byt (Powoli)",
    "CONTROLS.ObjectRotateFast": "Obróć Byt (Szybko)",
    "CONTROLS.ObjectNoSnap": "Pomiń Ograniczenie Dopasowania do Siatki",

	"CONTROLS.TokenCycle": "Przełączaj Sterowalne Tokeny",
	"CONTROLS.TokenFace": "Kierunek",
	"CONTROLS.TokenHUD": "HUD Tokena",
	"CONTROLS.TokenHighlight": "Podświetl Token",
	"CONTROLS.TokenPlace": "Ustaw Token",
	"CONTROLS.TokenPlaceHidden": "Ustaw Ukryty Token (MG)",
	"CONTROLS.TokenKeyMove": "Poruszanie klawiaturą",
	"CONTROLS.TokenDiagMove": "Poruszanie na ukos",
	"CONTROLS.TokenMoveMeasure": "Przemieść wzdłóż ścieżki",
	"CONTROLS.TokenRotateFast": "Obróć Token (szybko)",
	"CONTROLS.TokenRotateSlow": "Obróć Token (wolno)",
	"CONTROLS.TokenSet": "Modyfikuj Zestaw Kontroli Tokena",
	"CONTROLS.TokenSheet": "Obejrzyj Kartę Postaci",
	"CONTROLS.TokenWhileMeasure": "podczas mierzenia dystansu",

    "CONTROLS.TileBrowser": "Przeglądaj Kafelki",
    "CONTROLS.TokenHeader": "Sterowanie Tokenem",
    "CONTROLS.TokenTarget": "Oznacz (niekontrolowany) Token jako Cel",
    "CONTROLS.WallHeader": "Sterowanie Ścianami",
    "CONTROLS.DrawingHeader": "Sterowanie Rysowania",
    "CONTROLS.DrawingTextConfirm": "Potwierdź Rysowany Tekst",
    "CONTROLS.DrawingTextCancel": "Wycofaj Rysowany Tekst",
    
	"CONTROLS.WallChain": "Łącz Ustawianie Ściań",
	"CONTROLS.WallSelectChain": "Wybierz Łączony Segment",

	"CONTROLS.HeaderToken": "Sterowanie Tokenów",
	"CONTROLS.HeaderWalls": "Sterowanie Warstw Ściań (MG)",
 
    "DICE.ErrorNonNumeric": "Formuła rzutu kośćmi {formula} nie posiada liczbowego rezultatu.",
    
	"ENTITY.Actor": "Aktor",
    "ENTITY.ChatMessage": "Wiadomość z Czatu",
    "ENTITY.Combat": "Starcie",
	"ENTITY.Item": "Byt",
    "ENTITY.Folder": "Katalog",
    "ENTITY.JournalEntry": "Notatka",
    "ENTITY.Macro": "Macro",
    "ENTITY.Playlist": "Playlista",
	"ENTITY.Scene": "Scena",
    "ENTITY.User": "Użytkownik",
    "ENTITY.CreateNew": "Utwórz Nowy",
	"ENTITY.TypeHint": "Określ typ Bytu, który chcesz utworzyć",
	
    "FILES.CreateDirectory": "Utwórz Katalog",
    "FILES.TogglePrivacy": "Przełącz Tryb Prywatności",
    "FILES.DisplayMode": "Tryb Wyświetlania",
    "FILES.DisplayModeList": "Widok Listy",
    "FILES.DisplayModeTiles": "Widok Kafelek",
    "FILES.DisplayModeThumbs": "Widok Miniatur",
    "FILES.DisplayModeImages": "Widok Obrazów",
    "FILES.FilterLabel": "Filtruj Rezultaty",
    "FILES.S3Label": "S3 Bucket",
    "FILES.Select": "Zaznacz Plik",
    "FILES.Selected": "Zaznaczony",
    "FILES.TileSize": "Rozmiar Kafelek",
    "FILES.TileSizeHint": "Określ rozmiar (w pikselach) siatki źródłowego obrazu użytego jako kafelek, aby automatycznie dopasować go do sceny podczas umieszczania.",
    "FILES.NoResults": "Nie znaleziono żadnych wyników w tej lokacji.",
    "FILES.Upload": "Wyślij",
    "FILES.ErrorTooLarge": "Plik, który próbowano wysłać jest zbyt duży, aby twój serwer proxy go obsłużył.",
    "FILES.ErrorSomethingWrong": "Coś poszło nie tak podczas wysyłania pliku.",
	"FILES.WarnUploadModules": "Wysłałeś pliki do katalogu modułu lub systemu. Jest to <strong>wysoce niebezpieczne</strong> ponieważ podczas aktualizacji systemu lub modułu pliki zostaną usunięte.",
	
    "GAME.Paused": "Pauza Aktywna",
	"GAME.PausedWarning": "Nie możesz wykonać tej operacji, ponieważ gra jest aktualnie zapauzowana",
	
    "INVITATIONS.Copied": "Link z zaproszeniem skopiowano do schowka",
    "INVITATIONS.Instructions": "Podziel się poniższymi zaproszeniami z użytkownikami, których chciałbyś dołączyć do gry. Lokalne zaproszenia są dla użytkowników z twojej sieci lokalnej, podczas gdy internetowe linki łączą się za pośrednictwem Internetu po skonfigurowanym porcie.",
    "INVITATIONS.Internet": "Internet",
    "INVITATIONS.Local": "Sieć Lokalna",
    "INVITATIONS.Title": "Linki z Zaproszeniami do Gry",

    "ITEM.Create": "Utwórz Byt",
    "ITEM.Delete": "Usuń Byt",
    "ITEM.Search": "Szukaj Bytów",
    "ITEM.ViewArt": "Wyświetl Obrazek Bytu",

    "HUD.ToggleVis": "Przełącz Widoczność",
    "HUD.ToggleLock": "Przełącz Blokadę",
    "HUD.ToFront": "Przesuń na Wierzch",
	"HUD.ToBack": "Przesuń pod Spód",
	
    "JOURNAL.Title": "Notatnik",
    "JOURNAL.Search": "Przeszukaj Notatnik",
    "JOURNAL.Create": "Utwórz Notatkę",
    
    "LIGHT.DarknessThreshold": "Próg Ciemności",
    "LIGHT.DarknessThresholdHint": "Jeśli próg ciemności jest zdefiniowany, źródło światła będzie widoczne tylko gdy poziom ciemności Sceny przekracza zdefiniowany próg.",
    "LIGHT.LightColor": "Kolor Światła",
	"LIGHT.LightOpacity": "Nieprzezroczystość Światła",
	
    "MACRO.Create": "Utwórz Makro",
    "MACRO.Delete": "Usuń Makro",
    "MACRO.DeleteConfirm": "<p><strong>Czy na pewno chcesz to zrobić?</strong> To Makro będzie bezpowrotnie usunięte.</p>",
    "MACRO.Execute": "Wykonaj Makro",
    "MACRO.Save": "Zapisz Makro",
    "MACRO.Search": "Szukaj Makr",

    "MENU.Reload": "Przeładuj Aplikację",
    "MENU.Logout": "Wyloguj",
    "MENU.Players": "Konfiguruj Graczy",
    "MENU.Setup": "Powróć Do Ustawień Aplikacji",

    "MODMANAGE.Bugs": "Zgłoś Błąd lub Problem",
    "MODMANAGE.DeactivateAll": "Deaktywuj Wszystkie Moduły",
    "MODMANAGE.Readme": "Dokumentacja Modułów",
    "MODMANAGE.Title": "Zarządzanie Modułami",
    "MODMANAGE.Instructions": "Użyj tego formularza, aby aktywować moduły w aktualnym Świecie. Zapisanie zmian spowoduje przeładowanie sesji.",
    "MODMANAGE.View": "Moduły widoczne poniżej są aktualne aktywne w tym Świecie.",
    "MODMANAGE.None": "Brak dostępnych Modułów w tym świecie. Możesz przeglądać, ale nie możesz zmodyfikować tej listy.",
    "MODMANAGE.Search": "Filtruj Moduły",
    "MODMANAGE.Submit": "Zapisz Ustawienia Modułów",
    "MODMANAGE.Dependencies": "Zależności",
    "MODMANAGE.DepEnable": "Ten Moduł posiada następującą liczbę zależności wymaganych, aby działał prawidłowo: {number}. Czy chciałbyś je również aktywować?",
    "MODMANAGE.DepDisable": "Ten Moduł posiada następującą liczbę zależności, które mogą nie być już wymagane: {number}. Czy chciałbyś je również deaktywować?",
    "MODMANAGE.DepMissing": "Aktywowałeś Moduł {module}, ale jego moduły zależne {missing} nie są dostępne!",
    "MODMANAGE.FilterAll": "Wszystkie Moduły",
    "MODMANAGE.FilterActive": "Aktywne Moduły",
    "MODMANAGE.FilterInactive": "Niekatywne Moduły",
       
    "NOTE.AnchorPoint": "Punkt Zakotwiczenia Tekstu",
    "NOTE.ConfigTitle": "Konfiguracja Notatki",
    "NOTE.EntryIcon": "Ikona Wpisu",
    "NOTE.FontSize": "Rozmiar Czcionki",
    "NOTE.IconSize": "Rozmiar Ikony",
    "NOTE.IconTint": "Odcień Ikony",
    "NOTE.TextLabel": "Etykieta Tekstu",
    "NOTE.Update": "Zapisz Ustawienia Notatki",
     
    "PLAYERS.Title": "Gracze",
    "PLAYERS.CharSelect": "Zaznacz Postać",
    "PLAYERS.CharRelease": "Uwolnij Postać",
    "PLAYERS.ConfigTitle": "Konfiguracja Gracza",
    "PLAYERS.PlayerColor": "Kolor Gracza",
    "PLAYERS.PlayerAvatar": "Awatar Gracza",
    "PLAYERS.PullToScene": "Dodaj do Sceny",
    "PLAYERS.SaveConfig": "Zapisz Ustawienia",
    "PLAYERS.ViewAvatar": "Wyświetl Awatar Gracza",
    "PLAYERS.Kick": "Wyrzuć Gracza",
    "PLAYERS.Ban": "Banuj Gracza",
    "PLAYERS.UnBan": "Odbanuj Gracza",

    "PLAYLIST.Create": "Utwórz Playlistę",
    "PLAYLIST.Delete": "Usuń Playlistę",
    "PLAYLIST.Edit": "Edytuj Playlstę",
    "PLAYLIST.GlobalVolume": "Globalne Ustawienia Dźwięku",
    "PLAYLIST.ModeDisabled": "Wyłączono",
    "PLAYLIST.ModeSequential": "Odtwarzanie Sekwencyjne",
    "PLAYLIST.ModeShuffle": "Odtwarzanie Losowe",
    "PLAYLIST.ModeSimultaneous": "Odtwarzanie Jednoczesne",
    "PLAYLIST.Play": "Odtwórz Playlistę",
    "PLAYLIST.SoundAdd": "Dodaj Pozycję",
    "PLAYLIST.SoundEdit": "Edytuj Pozycję",
    "PLAYLIST.SoundDelete": "Usuń Pozycję",
    "PLAYLIST.SoundLoop": "Zapętl Pozycję",
    "PLAYLIST.SoundPlay": "Odtwórz Pozycję",
    "PLAYLIST.SoundPreload": "Załaduj Pozycję",
    "PLAYLIST.SoundVolume": "Głośność Pozycji",
    "PLAYLIST.SoundStop": "Zatrzymaj Pozycję",
    "PLAYLIST.Stop": "Zatrzymaj Playlistę",
    "PLAYLIST.VolPlaylist": "Playlisty",
    "PLAYLIST.VolAmbient": "Ambient",
    "PLAYLIST.VolInterface": "Interfejs",

    "SCENES.Access" : "Dostęp",
    "SCENES.AccessHint" : "Ustaw uprawnienia do tej sceny oraz zdecyduj, czy ma się pojawić pasku nawigacji.",
    "SCENES.Accessibility" : "Widoczność",
    "SCENES.AccessibilityGM" : "Tylko MG",
    "SCENES.AccessibilityAll" : "Wszyscy Gracze",
    "SCENES.Activate": "Aktywuj",
    "SCENES.AmbienceAtmosphere" : "Tło oraz Efekty Pogodowe",
    "SCENES.Appearance": "Widok",
    "SCENES.AppearanceHint": "Ustaw obrazek tła oraz wymiary głównej mapy sceny.",
    "SCENES.AudioPlaylist": "Playlista",
    "SCENES.AudioPlaylistHint": "Playlista, która powinna się uruchomić automatycznie, gdy scena jest aktywowana.",
    "SCENES.BackgroundColor" : "Kolor Tła",
    "SCENES.BackgroundImage" : "Obrazek Tła",
    "SCENES.BackgroundScale": "Skalowanie Obrazka Tła",
    "SCENES.Configure": "Konfiguruj",
    "SCENES.Darkness": "Poziom Ciemności",
    "SCENES.DarknessHint": "Konfiguruj poziom ciemności, który pokryje scenę w celu symulowania nocy lub warunków przyciemnienia.",
    "SCENES.FogExplore" : "Odkrywanie Mgły Wojny",
    "SCENES.FogExploreHint" : "Śledź odkrywanie sceny za pomocą Mgły Wojny.",
    "SCENES.GenerateThumb": "Odśwież Miniaturkę Sceny",
    "SCENES.GlobalIllum" : "Globalne Oświetlenie",
    "SCENES.GlobalIllumHint" : "Oświetl wszystkie obszary sceny, które kontrolowany Token posiada na linii wzroku.",
    "SCENES.GridColor" : "Kolor Siatki",
    "SCENES.GridConfig" : "Siatka",
    "SCENES.GridConfigHint" : "Ustaw wymiary siatki, które są używane do mierzenia, jak daleko Token może się poruszać.",
    "SCENES.GridConfigTool": "Ustawienia Siatki",
    "SCENES.GridDist" : "Wielkość Siatki",
    "SCENES.GridUnits" : "Jednostki Siatki",
    "SCENES.GridOpacity" : "Nieprzezroczystość Siatki",
    "SCENES.GridType" : "Typ Siatki",
    "SCENES.GridGridless": "Brak Siatki",
    "SCENES.GridSquare": "Kwadratowa",
    "SCENES.GridHexOddR": "Sześciościenne Wiersze - Nieparzyste",
    "SCENES.GridHexEvenR": "Sześciościenne Wiersze - Parzyste",
    "SCENES.GridHexOddQ": "Hexagonal Columns - Nieparzyste",
    "SCENES.GridHexEvenQ": "Hexagonal Columns - Parzyste",
    "SCENES.GridSize" : "Rozmiar Siatki",
    "SCENES.GridPosition": "Pozycja Offsetowa Siatki",
    "SCENES.InitialView": "Początkowa Pozycja",
    "SCENES.InitialViewButton": "Ustaw jako Początkową Pozycję",
    "SCENES.InitialViewHint": "Ustaw pozycję kamery, gdy Scena jest po raz pierwszy wyświetlana.",
    "SCENES.Height" : "Wysokość",
    "SCENES.LightHeader" : "Światło i Zmysły",
    "SCENES.NavName" : "Nazwa na Pasku Nawigacji",
    "SCENES.NavNameHint" : "Alternatywna nazwa Sceny widoczna dla graczy na pasku nawigacji.",
    "SCENES.Notes": "Notatki Sceny",
    "SCENES.Pixels" : "pixele",
    "SCENES.Preload": "Załaduj Scenę",
    "SCENES.SceneName": "Nazwa Sceny",
    "SCENES.JournalNotes": "Notatki",
    "SCENES.JournalNotesHint": "Powiązany wpis w Notatniku dla MG dotyczący danej Sceny.",
    "SCENES.ShowNav" : "Pokaż na Pasku Nawigacji",
    "SCENES.ShiftHorz" : "Przesuń Poziomo",
    "SCENES.ShiftVert" : "Przesuń Pionowo",
    "SCENES.TokenVision" : "Zmysły Tokena",
    "SCENES.TokenVisionHint" : "Ogranicz widoczność w obrębie Sceny na podstawie kontolowanych Tokenów i ich wzroku.",
    "SCENES.ToggleNav": "Przełącz Nawigację",
    "SCENES.Units" : "Jdenostki",
    "SCENES.Width" : "Szerokość",
    "SCENES.WeatherEffect" : "Efekty Pogodowe",
    "SCENES.WeatherEffectHint" : "Ustaw aktywny Efekt Pogodowy w obrębie Sceny.",

    "SETTINGS.Configure": "Ustawienia",
    "SETTINGS.Controls": "Skróty Klawiszowe",
    "SETTINGS.Docs": "Pokaż Dokumentację",
    "SETTINGS.Invite": "Zaproszenia",
    "SETTINGS.ManageModules": "Zarządzanie Modułami",
    "SETTINGS.ViewModules": "Wyświetl Aktywne Moduły",
    "SETTINGS.Title": "Ustawienia Gry",
    "SETTINGS.Update": "Aktualizuj Oprogramowanie",
    "SETTINGS.Logout": "Wyloguj",
    "SETTINGS.Players": "Konfiguracja Graczy",
    "SETTINGS.Reset": "Przywróć Ustawienia Domyślne",
    "SETTINGS.Save": "Zapisz Zmiany",
    "SETTINGS.Setup": "Wróć do Konfiguracji Aplikacji",
    "SETTINGS.InfoHeader": "Główne Informacje",
    "SETTINGS.SettingsHeader": "Ustawienia Gry",
    "SETTINGS.DocsHeader": "Pomoc i Dokumentacja",
    "SETTINGS.InviteHeader": "Zaproszenia do Gry",
    "SETTINGS.Wiki": "Wiki Społeczności",
    "SETTINGS.LangN": "Ustawienia Językowe",
    "SETTINGS.LangL": "Zmień język wyświetlania Foundry Virtual Tabletop.",
    "SETTINGS.CBubN": "Aktywuj Chmurki Czatu",
    "SETTINGS.CBubL": "Ustaw, czy wyświetlać chmurki czatu nad Tokenem z komunikatem z Czatu.",
    "SETTINGS.CBubPN": "Centruj na Tokenie",
    "SETTINGS.CBubPL": "Ustaw, czy automatycznie centrować kamerę na Tokenie, kiedy wyświetla się chmurka z wiadomością z Czatu.",
    "SETTINGS.MaxFPSN": "Maksymalny Framerate",
    "SETTINGS.MaxFPSL": "Ogranicz maksymalny framerate, z którym Foundry Virtual Tabletop will będzie odświeżać canvas. Obniżenie tej wartości może poprawić wydajność aplikacji na słabszych maszynach..",
    "SETTINGS.SoftSN": "Aktywuj Delikatne Cienie",
    "SETTINGS.SoftSL": "Aktywuj delikatne cienie dla ładniejszego dynamicznego oświetlenia, lub wyłącz w celu poprawienia wydajności.",
    "SETTINGS.TabCore": "Ustawienia Główne",
    "SETTINGS.TabModule": "Ustawienia Modułów",
    "SETTINGS.TabSystem": "Ustawienia Systemu",
    "SETTINGS.None": "Nie ma żadnych ustawień danego typu, do których masz dostęp.",
    
    "SETUP.CoreVersion": "Wersja Oprogramowania",
    "SETUP.CoreVersionHint": "Tutaj możesz zaktualizować Foundry Virtual Tabletop do nowszej wersji, gdy będzie dostępna. Aktualnie korzystasz z wersji {coreVersion}.",
    "SETUP.SettingsHeader": "Ustawienia Aplikacji",
    "SETUP.UpdateHeader": "Aktualizacja Aplikacji",
    "SETUP.UpdateAvailable": "Aktualizacja z kanału {channel} do wersji {version} jest dostępna!",
    "SETUP.Configuration": "Ustawienia",
    "SETUP.ConfigurationWarning": "Poniższe atrybuty konfigurują zachowanie serwera Foundry Virtual Tabletop. Uważaj podczas wprowadzania zmian. Będziesz musiał uruchomić aplikację ponownie, aby zmiany zostały rozpoznane.",
    "SETUP.Modules": "Moduły",
    "SETUP.Systems": "Systemy",
    "SETUP.Title": "Ustawienia",
    "SETUP.Update": "Aktualizuj",
    "SETUP.UpdateAll": "Aktualizuj Wszystko",
    "SETUP.UpdateChannel": "Kanał Aktualizacji",
    "SETUP.UpdateChannelHint": "Możesz wybrać kanał, z którego będziesz otrzymywać aktualizacje Foundry Virtual Tabletop. Jeśli nie masz konkretnego celu, zalecane jest korzystanie z kanału Release.",
    "SETUP.UpdateCheck": "Sprawdź Aktualizację",
    "SETUP.UpdateCheckFor": "Sprawdź Aktualizację",
    "SETUP.UpdateAlpha": "Alpha (Eksperymentalny)",
    "SETUP.UpdateBeta": "Beta (Kandydat)",
    "SETUP.UpdateRelease": "Release (Stabilny)",
    "SETUP.UpdateKey": "Zaktualizuj Klucz Dostępu",
    "SETUP.ForceUpdateHint": "Zaznaczenie tej opcji wymusi aktualizację do wybranego kanału. Nie zaznaczaj tej opcji, jeśli nie jesteś absolutnie pewny co robisz.",
    "SETUP.UpdateWarning": "W celu aktualizacji Foundry Virtual Tabletop musisz posiadać dostęp do Internetu oraz ważną licencję aplikacji.",
    "SETUP.Uninstall": "Odinstaluj",
    "SETUP.WorldCreate": "Utwórz Świat",
    "SETUP.WorldDelete": "Usuń Świat",
    "SETUP.WorldEdit": "Edytuj Świat",
    "SETUP.WorldLaunch": "Uruchom Świat",
    "SETUP.Worlds": "Światy",
    "SETUP.RequireUpdate": "Wymagana Aktualizacja",
    "SETUP.RequireSystem": "Wymagana Aktualizacja Systemu",
    "SETUP.RequireDep": "Wymagane Zależności",
    "SETUP.RequireCore": "Wymagana Aktualizacja Oprogramowania",
    
    "SETUP.CompatibilityUnknown": "Kompatybilność Nieznana",
    "SETUP.CompatibilityRisk": "Ryzyko Braku Kompatybilności",
    "SETUP.ManifestURL": "URL Manifestu",
    "SETUP.InstallHint": "Możesz zainstalować dowolną paczkę wpisując adres URL manifestu JSON.",
    "SETUP.InstallModule": "Zainstaluj Moduł",
    "SETUP.InstallSystem": "Zainstaluj System",
    "SETUP.InstallSuccess": "{type} {name} został zainstalowany",
    "SETUP.InstallFailure": "Instalacja nie powiodła się: {message}",
    "SETUP.InstallWorld": "Zainstaluj Świat",
    "SETUP.UninstallSuccess": "Odinstalowano",
    "SETUP.UninstallFailure": "Nie udało się odinstalować",
    "SETUP.UpdateSuccess": "Zaktualizowano",
    "SETUP.UpdateFailure": "Aktualizacja nie powiodła się",
    "SETUP.PackagesLoading": "Trwa Ładowanie Dostępnych Paczek",
    "SETUP.PackageFilter": "Filtruj Paczki",
    "SETUP.PackageFilterHint": "Możesz filtrować dostępne paczki po nazwie.",
    "SETUP.PackageCategories": "Kategorie Paczek",
    "SETUP.PackageInstalled": "Zainstalowane",
    "SETUP.PackageNotOwned": "Nie posiadane",
    "SETUP.PackageVisAll": "Wszystkie Paczki",
    "SETUP.PackageVisInst": "Tylko Zainstalowane",
    "SETUP.PackageVisUnin": "Tylko Niezainstalowane",
    
    "SETUP.PackageHasDependencies": "Zainstalowany Moduł posiada następującą liczbę zależności wymaganych, aby działał prawidłowo: {number}, które nie są jeszcze zainstalowane.",
    "SETUP.PackageInstallDependencies": "Możesz nie móc korzystać z tej paczki, jeśli następujące zależności nie są dostępne. Czy chcesz je zainstalować automatycznie?",
    "SETUP.PackageDependenciesDecline": "Nie zainstalowano wymaganych zależności dla paczki {title}. Konieczne będzie zainstalowanie ich ręcznie.",
    "SETUP.PackageDependenciesSuccess": "Zainstalowano {title} oraz następującą liczbę zależności: {number}.",
    
    "SETUP.AdminAccess": "Foundry Virtual Tabletop &bull; Dostęp Administratora",
    "SETUP.AdminKeyLabel": "Hasło Administratora",
    "SETUP.AdminKeyHint": "Możesz ustalić specjalne hasło administratora, które będzie konieczne aby uruchomić ekran ustawień aplikacji.",
    "SETUP.AdminLogout": "Wyloguj Administratora",
    "SETUP.AWSLabel": "Ścieżka AWS",
    "SETUP.AWSHint": "Moższ podać ścieżkę do pliku ustawień AWS w celu integracji z S3. Ścieżka może być bezwzględna lub względna do katalogu Config danych użytkownika.",
    "SETUP.PortLabel": "Port",
    "SETUP.PortHint": "Możesz wybrać port TCP używany przez Foundry Virtual Tabletop do komunikacji, oraz włączyć lub wyłączyć Universal Plug and Play (UPnP).",
    "SETUP.UPNPLabel": "Włącz UPnP?",
    "SETUP.DataPathLabel": "Scieżka do Danych Użytkownika",
    "SETUP.DataPathHint": "Ustaw ścieżkę do katalogu, gdzie dane użytkownika takie jak Światy, Systemy oraz Moduły będą przechowywane.",
    "SETUP.WorldLabel": "Domyślny Świat",
    "SETUP.WorldHint": "Możesz wybrać jeden z dostępnych światów jako domyślnie uruchamiany, kiedy aplikacja startuje.",
    "SETUP.SSLCertLabel": "Ceryfikat SSL",
    "SETUP.SSLKeyLabel": "Klucz SSL",
    "SETUP.SSLHint": "Możesz uruchomić serwer korzystając bezpiecznego połączenia (SSL) poprzez podanie ścieżek do certyfikatu oraz klucza. Ścieżka może być bezwzględna lub względna do katalogu Config danych użytkownika.",
    
    "SHEETS.EntitySheetHint": "Nadpisz domyślną kartę, której chcesz używać dla danego obiektu.",
    "SHEETS.TypeSheetHint": "Ustaw domyślną kartę, której będziesz używać dla danego obiektów danego typu (tylko MG).",
	"SHEETS.Save": "Zapisz Ustawienia Karty",
	
    "SIDEBAR.CharArt": "Wyświetl Obrazek Postaci",
    "SIDEBAR.CollapseToggle": "Rozwiń lub Zwiń",
    "SIDEBAR.Delete": "Usuń",
    "SIDEBAR.DeleteConfirm": "<h3>Czy na pewno chcesz to zrobić?</h3><p>Ten obiekt będzie <strong>nieodwracalnie usunięty</strong>.</p>",
    "SIDEBAR.Duplicate": "Sklonuj",
    "SIDEBAR.Export": "Eksportuj Dane",

    "FOLDER.Clear": "Wyczyść Katalog",
    "FOLDER.Color": "Kolor Katalogu",
    "FOLDER.Create": "Utwórz Katalog",
    "FOLDER.Collapse": "Zwiń Wszystkie Katalogi",
    "FOLDER.Delete": "Usuń Wszystko",
    "FOLDER.DeleteConfirm": "<h3>Czy na pewno chcesz to zrobić?</h3><p>Ten katalog oraz cała jego zawartość będzię <strong>bezpowrotnie usunięta</strong>.</p>",
    "FOLDER.Edit": "Edytuj Katalog",
    "FOLDER.Name": "Nazwa Katalogu",
    "FOLDER.Remove": "Usuń Katalog",
    "FOLDER.RemoveConfirm": "<h3>Czy na pewno chcesz to zrobić?</h3><p>Ten katalog zostanie usunięty i cała jego zawartość zostanie przeniesiona do katalogu nadrzędnego.</p>",
    "FOLDER.Update": "Aktualizuj Katalog",

    "PERMISSION.AllPlayers": "Wszyscy Gracze",
    "PERMISSION.Configure": "Ustawienia Uprawnień",
    "PERMISSION.ConfigureLabel": "Otwórz Ustawienia Uprawnień",
    "PERMISSION.ConfigureHint": "Zdefiniuj dozwolone operacje dla użytkowników w danej roli.",
    "PERMISSION.Title": "Ustawienia Uprawnień",
    "PERMISSION.Instructions": "Ustaw, które użytkownicy w jakich rolach mogą wykonywać poszczególne operacje. Pamiętaj, że niektórych operacji nie można zabronić roli MG. Niektóre zmiany mogą wymagać ponownego uruchomienia gry.",
    "PERMISSION.Permission": "Uprawnienia",
    "PERMISSION.Permissions": "Uprawnienia Roli",
    "PERMISSION.Reset": "Przywróć Domyślne",
    "PERMISSION.Submit": "Zapisz Ustawienia",
    "PERMISSION.BroadcastAudio": "Zezwól na transmisję Audio",
    "PERMISSION.BroadcastAudioHint": "Pozwól graczom w tej roli na transmisję audio podczas używania integracji A/V.",
    "PERMISSION.BroadcastVideo": "Zezwól na transmisję Video",
    "PERMISSION.BroadcastVideoHint": "Pozwól graczom w tej roli na transmisję video podczas używania integracji A/V.",
    "PERMISSION.ActorCreate": "Tworzenie Aktorów",
    "PERMISSION.ActorCreateHint": "Zezwól graczom w tej roli na tworzenie nowych Aktorów w Świecie.",
    "PERMISSION.DrawingCreate": "Używanie Narzędzi do Rysowania",
    "PERMISSION.DrawingCreateHint": "Zezwól graczom w tej roli na tworzenie Rysunków za pomocą narzędzi do rysowania.",
    "PERMISSION.ItemCreate": "Tworzenie Przedmiotów",
    "PERMISSION.ItemCreateHint": "Zezwól graczom w tej roli na tworzenie nowych Przedmiotów w Świecie.",
    "PERMISSION.FilesBrowse": "Przeglądanie Plików",
    "PERMISSION.FilesBrowseHint": "Zezwól graczom w tej roli na przeglądanie plików za pomocą File Picker.",
    "PERMISSION.FilesUpload": "Przesyłanie Plików",
    "PERMISSION.FilesUploadHint": "Zezwól graczom w tej roli na przesyłanie plików na serwer za pomocą File Picker.",
    "PERMISSION.JournalCreate": "Tworzenie Notatek",
    "PERMISSION.JournalCreateHint": "Zezwól graczom w tej roli na tworzenie nowych notatek w notatniku.",
    "PERMISSION.MacroScript": "Używanie Makr JavaScript",
    "PERMISSION.MacroScriptHint": "Zezwól graczom w tej roli na używaine Makr zawierających JavaScript, które korzystają z API.",
    "PERMISSION.MessageWhisper": "Szeptane Wiadomości",
    "PERMISSION.MessageWhisperHint": "Zezwól graczom w tej roli na wysyłanie wiadomości, których nie widzi MG.",
    "PERMISSION.SettingsModify": "Zmiana Ustawień",
    "PERMISSION.SettingsModifyHint": "Zezwól graczom w tej roli na modyfikowanie ustawień gry oraz włączanie/wyłączanie modułów.",
    "PERMISSION.ShowCursor": "Wyświetlanie Kursora",
    "PERMISSION.ShowCursorHint": "Wyświetla pozycję myszki gracza w tej roli, która obrazuje na co w tej chwili zwraca uwagę na mapie.",
    "PERMISSION.ShowRuler": "Wyświetlanie Narzędzi Miar",
    "PERMISSION.ShowRulerHint": "Wyświetla narzędzia do mierzenia pozostałym dołączonym graczom.",
    "PERMISSION.TemplateCreate": "Tworzenie Wzorów Miar",
    "PERMISSION.TemplateCreateHint": "Zezwól graczom w tej roli na tworzenie Wzorów za pomocą narzędzi do tworzenia efektów.",
    "PERMISSION.TokenCreate": "Tworzenie Tokenów",
    "PERMISSION.TokenCreateHint": "Zezwól graczom w tej roli na umieszczanie Tokenów dla Aktorów, które kontrolują.",
    "PERMISSION.TokenConfigure": "Ustawienia Tokenów",
    "PERMISSION.TokenConfigureHint": "Zezwól graczom w tej roli na zmianę ustawień Tokenów, które kontrolują.",
    "PERMISSION.WallDoors": "Otwieranie i Zamykanie Drzwi",
    "PERMISSION.WallDoorsHint": "Zezwól graczom w tej roli na wchodzenie w intetakcję z drzwiami w warstwie Ścian.",
    
    "SIDEBAR.Import": "Importuj Dane",
    "SIDEBAR.Permissions": "Ustawienia Uprawnień",
    "SIDEBAR.SceneCreate": "Utwórz Scenę",
    "SIDEBAR.SceneSearch": "Szukaj Scen",
    "SIDEBAR.TabChat": "Log Czatu",
    "SIDEBAR.TabCombat": "Panel Walki",
    "SIDEBAR.TabScenes": "Katalog Scen",
    "SIDEBAR.TabActors": "Katalog Aktorów",
    "SIDEBAR.TabItems": "Katalog Przedmiotów",
    "SIDEBAR.TabJournal": "Notatnik",
    "SIDEBAR.TabPlaylists": "Playlisty",
    "SIDEBAR.TabCompendium": "Kompendia",
    "SIDEBAR.TabSettings": "Ustawienia Gry",
    "SIDEBAR.TabTables": "Tabele Losujące",
    "SIDEBAR.TokenArt": "Wyświetl Obrazek Tokena",
    "SIDEBAR.JumpPin": "Przejdź do Wskaźnika",

    "TABLE.AnimateSetting": "Animuj Tabele Losujące?",
    "TABLE.AnimateSettingHint": "Zdecyduj, czy wyświetlać ruletkową animację podczas losowania z Tabeli Losującej.",
    "TABLE.Create": "Utwórz Tabelę Losującą",
    "TABLE.Description": "Opis Tabeli",
    "TABLE.DisplayRoll": "Wyświetl rzut na czacie?",
    "TABLE.Formula": "Formuła Tabeli Losującej",
    "TABLE.Search": "Szukaj Tabel",
    "TABLE.SheetTitle": "Ustawienia Tabeli Losującej",
    "TABLE.Normalize": "Normalizuj Wagi Wyników",
    "TABLE.Replacement": "Wyciągnij z Wymianą?",
    "TABLE.Reset": "Resetuj",
    "TABLE.ResultCreate": "Dodaj Nowy Wpis",
    "TABLE.ResultType": "Typ Wpisu",
    "TABLE.ResultDetails": "Szczegóły Wpis",
    "TABLE.ResultDelete": "Usuń Wpis",
    "TABLE.ResultWeight": "Waga",
    "TABLE.ResultRange": "Zakres",
    "TABLE.Roll": "Rzut",
    "TABLE.ToggleDrawn": "Przełącz Stan Losowania",
    "TABLE.Update": "Aktualizuj",
    
    "TEMPLATE.ConeTypeSetting": "Typ Rożka",
    "TEMPLATE.ConeTypeSettingHint": "Wybierz rodzaj rożka dla efektu powierzchniowego.",
    "TEMPLATE.ConeTypeFlat": "Płaski",
    "TEMPLATE.ConeTypeRound": "Zaokrąglony",
    
    "TOKEN.Assign": "Przypisz Token",
    "TOKEN.AssignWarn": "Musisz wybrać istniejący Token aby przypisać szablon ustawień.",
    "TOKEN.AssignSuccess": "Zaktualizuj szablon ustawień Tokena dla {name}",
    "TOKEN.BarAttributes": "Paski Atrybutów",
    "TOKEN.BarValues": "Pojedyncze Wartości",
    "TOKEN.CharActor": "Powiązany Aktor",
    "TOKEN.CharDisposition": "Układ Tokena",
    "TOKEN.CharInstructions": "Ustaw, który aktor jest powiązany z danym Tokenem.",
    "TOKEN.CharLink": "Powiąż Dane Aktora",
    "TOKEN.CharNameplate": "Nazwa Tokena",
    "TOKEN.CharShowNameplate": "Nazwa Wyświetlana",
    "TOKEN.ImageAlts": "Alternatywne Tokeny Aktora",
    "TOKEN.ImageInstructions": "Ustaw obrazek Tokena oraz jego rozmiar i skalę.",
    "TOKEN.ImagePath": "Scieżka do Obrazka Tokena",
    "TOKEN.MirrorX": "Lustrzane Odbicie w Poziomie",
    "TOKEN.MirrorY": "Lustrzane Odbicie w Pionie",
    "TOKEN.PositionInstructions": "Ustaw pozycję, orientację oraz wysokość Tokena.",
    "TOKEN.PositionLock": "Zablokuj Obroty",
    "TOKEN.RandomImg": "Losuj Obrazki",
    "TOKEN.ResourceInstructions": "Ustaw atrybuty śledzone na paskach Tokena.",
    "TOKEN.ResourceBar1A": "Atrybut 1 Paska",
    "TOKEN.ResourceBar1D": "Wartość Atrybutu 1 Paska",
    "TOKEN.ResourceBar2A": "Atrybut 2 Paska",
    "TOKEN.ResourceBar2D": "Wartość Atrybutu 2 Paska",
    "TOKEN.ResourceDisplay": "Wyświetl Paski Atrybutów",
    "TOKEN.Title": "Ustawienia Tokena",
    "TOKEN.TitlePrototype": "Szablon Tokena",
    "TOKEN.TintColor": "Kolor Odcienia",
    "TOKEN.Update": "Aktualizuj Token",
    "TOKEN.VisionInstructions": "Ustaw zmysły oraz emisję światła Tokena.",
    "TOKEN.VisionHas": "Posiada Wzrok",
    "TOKEN.VisionBrightDist": "Zasięg Wzroku",
    "TOKEN.VisionBrightEmit": "Emituj Światło",
    "TOKEN.VisionDimDist": "Zaięg Wzroku (Przyciemniony)",
    "TOKEN.VisionDimEmit": "Emituj Światło (Przyciemnione)",
    "TOKEN.VisionLightAngle": "Kąt Emisji",
    "TOKEN.VisionSightAngle": "Kąt Widzenia",
    "TOKEN.HOSTILE": "Wrogi",
    "TOKEN.NEUTRAL": "Neutralny",
	"TOKEN.FRIENDLY": "Przyjazny",
	
	"USER.RoleNone": "Brak",
    "USER.RolePlayer": "Gracz",
    "USER.RoleTrusted": "Zaufany Gracz",
    "USER.RoleAssistant": "Assystent MG",
    "USER.RoleGamemaster": "Mistrz Gry",
    "USERS.AccessKey": "Klucz Dostępu",
    "USERS.Role": "Rola Użytkownika",
    "USERS.UserName": "Nazwa Użytkownika",
    "USERS.Create": "Utwórz Użytkownika",
    "USERS.Delete": "Usuń Użytkownika",
    "USERS.Launch": "Rozpocznij Sesję",
    
    "WALLS.Title": "Ustawienia Ścian",
    "WALLS.TitleMany": "Ustawienia Ścian [Wiele]",
    "WALLS.Instructions": "Ustaw, jak ten fragment ścian ogranicza ruch lub zmysły",
    "WALLS.Coordinates": "Koordynaty Ściany",
    "WALLS.Movement": "Ograniczenia Ruchu",
    "WALLS.Senses": "Ograniczenia Widoczności",
    "WALLS.Direction": "Kierunek Ściany",
    "WALLS.Door": "Czy są to drzwi?",
    "WALLS.DoorState": "Otwarte/Zamknięte",
    "WALLS.Submit": "Aktualizuj Świat",
    
    "WORLD.DetailTab": "Szczegóły Świata",
    "WORLD.DescTab": "Opis Świata",
    

    "WEBRTC.Title" : "Audio/Video Configuration",
    "WEBRTC.MenuLabel": "Configure Audio/Video",
    "WEBRTC.MenuHint": "Configure settings specific to the integrated Audio/Video WebRTC component",
    "WEBRTC.UnknownDevice" : "<Unknown Device>",
    "WEBRTC.VideoDevice" : "Video Capture Device",
    "WEBRTC.VideoDeviceNotes" : "Select which video capture device you wish to use, if any.",
    "WEBRTC.AudioDevice" : "Audio Capture Device",
    "WEBRTC.AudioDeviceNotes" : "Select which audio capture device you wish to use, if any.",
    "WEBRTC.AudioOutput" : "Audio Output Device",
    "WEBRTC.AudioOutputNotes" : "Select which audio output device you wish to use.",
    "WEBRTC.DisableVideoSource" : "Disable Sending Camera",
    "WEBRTC.DisableAudioSource" : "Disable Sending Audio",
    "WEBRTC.DisableAudioOutput" : "Disable Audio Output",
    "WEBRTC.DefaultSource" : "Default Device",
    "WEBRTC.UnavailableDevice" : "Unavailable Device (will use Default)",
    "WEBRTC.WebRTCServer" : "Choose Signalling Server",
    "WEBRTC.WebRTCServerURL" : "Signalling Server URL",
    "WEBRTC.FVTTSignalingServer" : "Foundry VTT",
    "WEBRTC.CustomSignalingServer" : "Custom Server",
    "WEBRTC.WebRTCServerUsername" : "Signalling Server Username",
    "WEBRTC.WebRTCServerPassword" : "Signalling Server Password",
    "WEBRTC.WebRTCTurnServer" : "Relay Server Configuration",
    "WEBRTC.TURNServerProvisioned" : "Provided by Signalling Server",
    "WEBRTC.CustomTURNServer" : "Custom Relay Server",
    "WEBRTC.WebRTCTURNURL" : "Relay Server URL",
    "WEBRTC.WebRTCTurnUsername" : "Relay Server Username",
    "WEBRTC.WebRTCTurnPassword" : "Relay Server Password",
    "WEBRTC.GeneralTab" : "General",
    "WEBRTC.DevicesTab" : "Devices",
    "WEBRTC.ServerTab" : "Server",
    "WEBRTC.GeneralTabNotGM" : "General Audio/Video Conferencing Settings can only be modified by the GM",
    "WEBRTC.AVMode" : "Audio/Video Conferencing Mode",
    "WEBRTC.AVModeNotes" : "Only a GameMaster user may change this setting, which will require Foundry VTT to reload.",
    "WEBRTC.WebrtcModeDisabled" : "Disabled",
    "WEBRTC.WebrtcModeAudioOnly" : "Audio Only",
    "WEBRTC.WebrtcModeVideoOnly" : "Video Only",
    "WEBRTC.WebrtcModeAudioVideo" : "Audio/Video Enabled",
    "WEBRTC.TooltipToggleVideo" : "Toggle video",
    "WEBRTC.TooltipConfigure" : "Configure Settings",
    "WEBRTC.TooltipDock" : "Send to Dock",
    "WEBRTC.TooltipPopout" : "Pop out",
    "WEBRTC.PTTKey": "Push-to-Talk/Mute Key",
    "WEBRTC.PTTKeyNotes": "Assign a keyboard key which, in PTT mode, enables voice while held. If not in PTT mode, the same key mutes while pressed.",
    "WEBRTC.VoiceMode": "Voice Broadcasting Mode",
    "WEBRTC.VoiceModeNotes": "Choose how your voice is broadcast in AV calls.",
    "WEBRTC.VoiceAlways": "Always Enabled",
    "WEBRTC.VoiceActivity": "Voice Activation",
    "WEBRTC.VoicePTT": "Push-to-Talk",

    "WEBRTC.TooltipAllowUserVideo" : "Allow User Video",
    "WEBRTC.TooltipBlockUserVideo" : "Block User Video",
    "WEBRTC.TooltipAllowUserAudio" : "Allow User Audio",
    "WEBRTC.TooltipBlockUserAudio" : "Block User Audio",
    "WEBRTC.TooltipEnableMyVideo" : "Enable Video",
    "WEBRTC.TooltipDisableMyVideo" : "Disable Video",
    "WEBRTC.TooltipEnableMyAudio" : "Enable Audio",
    "WEBRTC.TooltipDisableMyAudio" : "Mute Audio",
    "WEBRTC.TooltipMutePeers" : "Mute Others' Audio",
    "WEBRTC.TooltipUnmutePeers" : "Unmute Others' Audio",

    "WEBRTC.TooltipHidePlayers" : "Hide Players List",
    "WEBRTC.TooltipChangeSize" : "Cycle Video Size",
    "WEBRTC.CaptureWarningVideo" : "Unable to capture from your Audio devices; Sharing Video only",
    "WEBRTC.CaptureWarningAudio" : "Unable to capture from your Video devices; Sharing Audio only",
    "WEBRTC.CaptureErrorAudioVideo" : "Unable to capture from your Audio & Video devices",
    "WEBRTC.CaptureErrorVideo" : "Unable to capture from your Video devices",
    "WEBRTC.CaptureErrorAudio" : "Unable to capture from your Audio & Video devices",
    "WEBRTC.ConnectError" : "Error connection to Audio/Video Signalling Server",
    "WEBRTC.ConnectionLostWarning" : "Lost connection to the Audio/Video Signalling server. Trying to re-establish connection.",
    "WEBRTC.GenericError" : "WebRTC Error : ",
    "WEBRTC.NoSSLError": "You cannot use Audio/Video calls unless your Foundry VTT server is using SSL certificates. See the online documentation for instructions.",

    "ERROR.ChromiumVersion": "Foundry Virtual Tabletop uses modern JavaScript features which are unsupported on Chromium version less than {minimum}. You are using Chromium version {version} and may encounter issues.",
    "ERROR.LowResolution": "Foundry Virtual Tabletop requires a minimum screen resolution of {reqWidth}px by {reqHeight}px or greater. Your display currently has an effective resolution of {width}px by {height}px, as a result many features of the software may not work properly.",
    "ERROR.NoWebGL": "Your browser does not currently support WebGL rendering which is required by Foundry Virtual Tabletop. Ensure that you have hardware rendering and WebGL enabled in your browser.",
    "ERROR.BackgroundTextureSize": "You are using a Scene background texture with dimensions {width}px by {height}px. One or both of these dimensions exceeds the maximum texture size of {max}px supported by your device.",
    "ERROR.InvalidAdminKey": "The provided administrator access key is invalid. If you have forgotten your configured password you will need to manually delete the <strong>Config/admin.txt</strong> file from your user data location.",
    "ERROR.TokenCollide": "The attempted Token movement collides with at least one Wall.",
    "ERROR.LoadPackages": "The request to browse existing packages failed to connect with the Foundry server. Make sure your application allows outbound connections.",
	"WARNING.GridConfigNoBG": "You are using the grid configuration tool for a scene with no background image. This is not currently recommended and may produce unpredictable results.",
	
	"EULA.Acknowledge": "Acknowledge Agreement",
	"EULA.Agree": "Agree",
	"EULA.AgreeHint": "I agree to these terms",
	"EULA.Decline": "Decline"
}